4.1 Preparing Data using Tidyr Package
…
# Convert to long format
long_data <- pivot_longer(
  wide_data,
  cols = starts_with("Math_Score"):starts_with("PE_Score"),
  names_to = "Course",
  values_to = "Score"
)

# Print long format data
print(long_data)

# A tibble: 21 × 3
   Student Course        Score
   <chr>   <chr>         <dbl>
 1 Alice   Math_Score       85
 2 Alice   English_Score    78
 3 Alice   Science_Score    92
 4 Alice   History_Score    88
 5 Alice   Art_Score        79
 6 Alice   Music_Score      84
 7 Alice   PE_Score         91
 8 Bob     Math_Score       90
 9 Bob     English_Score    88
10 Bob     Science_Score    85
# ℹ 11 more rows

We can also explicitly specify the columns

# Convert to long format using specific column names
long_data <- pivot_longer(
  wide_data,
  cols = c(Math_Score, English_Score, Science_Score, History_Score, Art_Score, Music_Score, PE_Score),
  names_to = "Course",
  values_to = "Score"
)

# Print long format data
print(long_data)

# A tibble: 21 × 3
   Student Course        Score
   <chr>   <chr>         <dbl>
 1 Alice   Math_Score       85
 2 Alice   English_Score    78
 3 Alice   Science_Score    92
 4 Alice   History_Score    88
 5 Alice   Art_Score        79
 6 Alice   Music_Score      84
 7 Alice   PE_Score         91
 8 Bob     Math_Score       90
 9 Bob     English_Score    88
10 Bob     Science_Score    85
# ℹ 11 more rows
…
